Experiment,Dataset,Type,Seed,ClusterCount,PCA,Minutes,PassThreshold,Metric,Value
Total_full,Species,0.01,3763994004,139,47,24.916667,33807,Precision,0.995182
Total_full,Species,0.01,3763994004,139,47,24.916667,33807,Recall,0.968081
Total_full,Species,0.01,3763994004,139,47,24.916667,33807,Adjusted Rand Index,0.971051
Total_full,Species,0.1,573921902,138,47,28.616667,33807,Precision,0.995128
Total_full,Species,0.1,573921902,138,47,28.616667,33807,Recall,0.973326
Total_full,Species,0.1,573921902,138,47,28.616667,33807,Adjusted Rand Index,0.980584
Total_full,Species,1,4219352750,138,47,21.266667,33807,Precision,0.967788
Total_full,Species,1,4219352750,138,47,21.266667,33807,Recall,0.955170
Total_full,Species,1,4219352750,138,47,21.266667,33807,Adjusted Rand Index,0.930226
Total_full,Species,10,621124954,140,47,16.416667,33807,Precision,0.979608
Total_full,Species,10,621124954,140,47,16.416667,33807,Recall,0.959110
Total_full,Species,10,621124954,140,47,16.416667,33807,Adjusted Rand Index,0.953705
Total_full,Species,100,1575920902,146,47,34.233333,33807,Precision,0.979608
Total_full,Species,100,1575920902,146,47,34.233333,33807,Recall,0.938452
Total_full,Species,100,1575920902,146,47,34.233333,33807,Adjusted Rand Index,0.884186
Total_full,Strain,0.01,1090451956,36,24,1.350000,6373,Precision,0.945219
Total_full,Strain,0.01,1090451956,36,24,1.350000,6373,Recall,0.866396
Total_full,Strain,0.01,1090451956,36,24,1.350000,6373,Adjusted Rand Index,0.875807
Total_full,Strain,0.1,2785304000,37,24,1.533333,6373,Precision,0.941157
Total_full,Strain,0.1,2785304000,37,24,1.533333,6373,Recall,0.864859
Total_full,Strain,0.1,2785304000,37,24,1.533333,6373,Adjusted Rand Index,0.891173
Total_full,Strain,1,412721154,38,24,1.366667,6373,Precision,0.946646
Total_full,Strain,1,412721154,38,24,1.366667,6373,Recall,0.857723
Total_full,Strain,1,412721154,38,24,1.366667,6373,Adjusted Rand Index,0.894588
Total_full,Strain,10,2551776651,39,24,1.466667,6373,Precision,0.942035
Total_full,Strain,10,2551776651,39,24,1.466667,6373,Recall,0.855747
Total_full,Strain,10,2551776651,39,24,1.466667,6373,Adjusted Rand Index,0.890259
Total_full,Strain,100,3787303000,38,24,1.416667,6373,Precision,0.941706
Total_full,Strain,100,3787303000,38,24,1.416667,6373,Recall,0.859370
Total_full,Strain,100,3787303000,38,24,1.416667,6373,Adjusted Rand Index,0.890290
Total_full,Species,Fixed,341540113,101,47,9.116667,33807,Precision,0.996033
Total_full,Species,Fixed,341540113,101,47,9.116667,33807,Recall,0.996033
Total_full,Species,Fixed,341540113,101,47,9.116667,33807,Adjusted Rand Index,0.992065
Total_full,Species,Guess,1161742835,71,47,17.450000,33807,Precision,0.810909
Total_full,Species,Guess,1161742835,71,47,17.450000,33807,Recall,0.994090
Total_full,Species,Guess,1161742835,71,47,17.450000,33807,Adjusted Rand Index,0.794312
Total_full,Strain,Fixed,396504641,20,24,1.283333,6373,Precision,0.915249
Total_full,Strain,Fixed,396504641,20,24,1.283333,6373,Recall,0.924361
Total_full,Strain,Fixed,396504641,20,24,1.283333,6373,Adjusted Rand Index,0.882690
Total_full,Strain,Guess,1216707357,11,24,1.700000,6373,Precision,0.720496
Total_full,Strain,Guess,1216707357,11,24,1.700000,6373,Recall,0.996377
Total_full,Strain,Guess,1216707357,11,24,1.700000,6373,Adjusted Rand Index,0.531455
